^C:\USERS\MAKOW\SOURCE\REPOS\SILNIA\SILNIA\DEBUG\SILNIA.OBJ
/OUT:"C:\USERS\MAKOW\SOURCE\REPOS\SILNIA\DEBUG\SILNIA.EXE" /INCREMENTAL /NOLOGO KERNEL32.LIB USER32.LIB GDI32.LIB WINSPOOL.LIB COMDLG32.LIB ADVAPI32.LIB SHELL32.LIB OLE32.LIB OLEAUT32.LIB UUID.LIB ODBC32.LIB ODBCCP32.LIB /MANIFEST /MANIFESTUAC:"level='asInvoker' uiAccess='false'" /manifest:embed /DEBUG:FASTLINK /PDB:"C:\USERS\MAKOW\SOURCE\REPOS\SILNIA\DEBUG\SILNIA.PDB" /SUBSYSTEM:CONSOLE /TLBID:1 /DYNAMICBASE /NXCOMPAT /IMPLIB:"C:\USERS\MAKOW\SOURCE\REPOS\SILNIA\DEBUG\SILNIA.LIB" /MACHINE:X86 DEBUG\SILNIA.OBJ
^F:\USERS\MAKOW\SOURCE\REPOS\SILNIA\SILNIA\DEBUG\SILNIA.OBJ
/OUT:"F:\USERS\MAKOW\SOURCE\REPOS\SILNIA\DEBUG\SILNIA.EXE" /INCREMENTAL /NOLOGO KERNEL32.LIB USER32.LIB GDI32.LIB WINSPOOL.LIB COMDLG32.LIB ADVAPI32.LIB SHELL32.LIB OLE32.LIB OLEAUT32.LIB UUID.LIB ODBC32.LIB ODBCCP32.LIB /MANIFEST /MANIFESTUAC:"level='asInvoker' uiAccess='false'" /manifest:embed /DEBUG:FASTLINK /PDB:"F:\USERS\MAKOW\SOURCE\REPOS\SILNIA\DEBUG\SILNIA.PDB" /SUBSYSTEM:CONSOLE /TLBID:1 /DYNAMICBASE /NXCOMPAT /IMPLIB:"F:\USERS\MAKOW\SOURCE\REPOS\SILNIA\DEBUG\SILNIA.LIB" /MACHINE:X86 DEBUG\SILNIA.OBJ
